\addvspace {10\p@ }
\addvspace {10\p@ }
\addvspace {10\p@ }
\addvspace {10\p@ }
\contentsline {table}{\numberline {4.1}{\ignorespaces Controller Manager Plug-in Configuration Parameters \relax }}{18}{table.caption.12}
\addvspace {10\p@ }
\contentsline {table}{\numberline {5.1}{\ignorespaces Mapping Denavit-Hartenberg Parameters \& URDF tags\relax }}{24}{table.caption.17}
\addvspace {10\p@ }
\contentsline {table}{\numberline {6.1}{\ignorespaces CheckList Of The Tests Done In The Water Tank\relax }}{41}{table.caption.36}
\addvspace {10\p@ }
\addvspace {10\p@ }
\addvspace {10\p@ }
\contentsline {table}{\numberline {B.1}{\ignorespaces URDF Tags Listing \& Explanation\relax }}{60}{table.caption.60}
\addvspace {10\p@ }
