\relax 
\providecommand\hyper@newdestlabel[2]{}
\providecommand\HyperFirstAtBeginDocument{\AtBeginDocument}
\HyperFirstAtBeginDocument{\ifx\hyper@anchor\@undefined
\global\let\oldcontentsline\contentsline
\gdef\contentsline#1#2#3#4{\oldcontentsline{#1}{#2}{#3}}
\global\let\oldnewlabel\newlabel
\gdef\newlabel#1#2{\newlabelxx{#1}#2}
\gdef\newlabelxx#1#2#3#4#5#6{\oldnewlabel{#1}{{#2}{#3}}}
\AtEndDocument{\ifx\hyper@anchor\@undefined
\let\contentsline\oldcontentsline
\let\newlabel\oldnewlabel
\fi}
\fi}
\global\let\hyper@last\relax 
\gdef\HyperFirstAtBeginDocument#1{#1}
\providecommand\HyField@AuxAddToFields[1]{}
\providecommand\HyField@AuxAddToCoFields[2]{}
\@input{header.aux}
\citation{Bohren2011}
\@writefile{toc}{\contentsline {chapter}{\numberline {1}Introduction}{1}{chapter.1}}
\@writefile{lof}{\addvspace {10\p@ }}
\@writefile{lot}{\addvspace {10\p@ }}
\newlabel{ch:intro}{{1}{1}{Introduction}{chapter.1}{}}
\@writefile{toc}{\contentsline {section}{\numberline {1.1}Background}{1}{section.1.1}}
\newlabel{sec:background}{{1.1}{1}{Background}{section.1.1}{}}
\@writefile{toc}{\contentsline {section}{\numberline {1.2}Motivation: Underwater Domain Challenges}{2}{section.1.2}}
\newlabel{sect:problem}{{1.2}{2}{Motivation: Underwater Domain Challenges}{section.1.2}{}}
\@writefile{toc}{\contentsline {section}{\numberline {1.3}Objectives}{2}{section.1.3}}
\newlabel{sec:goals}{{1.3}{2}{Objectives}{section.1.3}{}}
\@writefile{toc}{\contentsline {section}{\numberline {1.4}Outline}{3}{section.1.4}}
\newlabel{sec:outline}{{1.4}{3}{Outline}{section.1.4}{}}
\citation{Casalino2014}
\citation{Sanz2010}
\citation{Prats2011}
\citation{Jose2013}
\citation{Carrera2011}
\@writefile{toc}{\contentsline {chapter}{\numberline {2}State Of The Art}{4}{chapter.2}}
\@writefile{lof}{\addvspace {10\p@ }}
\@writefile{lot}{\addvspace {10\p@ }}
\newlabel{ch:background}{{2}{4}{State Of The Art}{chapter.2}{}}
\citation{Brandou2007}
\citation{Aleotti2012}
\citation{Berenson2007}
\citation{Borst2004}
\citation{Gastaldo2014}
\citation{Sauser2012}
\citation{Casalino2014}
\citation{Houts2012}
\citation{Houts2014}
\citation{Detweiler2009}
\citation{Palomeres2014}
\citation{Casalino2014}
\citation{Jose2013}
\citation{Khatib2014}
\citation{David2011}
\@writefile{toc}{\contentsline {chapter}{\numberline {3}I-AUV Architecture}{7}{chapter.3}}
\@writefile{lof}{\addvspace {10\p@ }}
\@writefile{lot}{\addvspace {10\p@ }}
\newlabel{ch:AUV}{{3}{7}{I-AUV Architecture}{chapter.3}{}}
\@writefile{toc}{\contentsline {section}{\numberline {3.1}Hardware Overview}{7}{section.3.1}}
\citation{Narcis2014}
\@writefile{lof}{\contentsline {figure}{\numberline {3.1}{\ignorespaces On the right, the Girona 500 I-AUV. On the left, a 3D model of the customized end-effector, with three blocks: 1 passive gripper, 2 camera in-hand \& 3 F/T sensor.\relax }}{8}{figure.caption.5}}
\providecommand*\caption@xref[2]{\@setref\relax\@undefined{#1}}
\newlabel{fig:girona500}{{3.1}{8}{On the right, the Girona 500 I-AUV. On the left, a 3D model of the customized end-effector, with three blocks: 1 passive gripper, 2 camera in-hand \& 3 F/T sensor.\relax }{figure.caption.5}{}}
\@writefile{toc}{\contentsline {section}{\numberline {3.2}Software Overview}{8}{section.3.2}}
\newlabel{sec:girona500_sw_overview}{{3.2}{8}{Software Overview}{section.3.2}{}}
\@writefile{lof}{\contentsline {figure}{\numberline {3.2}{\ignorespaces Girona500 System Architecture\relax }}{9}{figure.caption.6}}
\newlabel{fig:girona500_arch}{{3.2}{9}{Girona500 System Architecture\relax }{figure.caption.6}{}}
\citation{Coleman2014}
\@writefile{toc}{\contentsline {chapter}{\numberline {4}MoveIt! Architecture \& Capabilities}{11}{chapter.4}}
\@writefile{lof}{\addvspace {10\p@ }}
\@writefile{lot}{\addvspace {10\p@ }}
\newlabel{ch:moveit}{{4}{11}{MoveIt! Architecture \& Capabilities}{chapter.4}{}}
\@writefile{lof}{\contentsline {figure}{\numberline {4.1}{\ignorespaces MoveIt! Block Diagram \footnotemark \relax }}{11}{figure.caption.7}}
\newlabel{fig:moveit_overview}{{4.1}{11}{MoveIt! Block Diagram \protect \footnotemark \relax }{figure.caption.7}{}}
\@writefile{lof}{\contentsline {figure}{\numberline {4.2}{\ignorespaces MoveIt! Architecture \footnotemark \relax }}{12}{figure.caption.8}}
\newlabel{fig:moveit_architect}{{4.2}{12}{MoveIt! Architecture \protect \footnotemark \relax }{figure.caption.8}{}}
\@writefile{toc}{\contentsline {section}{\numberline {4.1}Modelling a new robot}{13}{section.4.1}}
\newlabel{modeling}{{4.1}{13}{Modelling a new robot}{section.4.1}{}}
\newlabel{fig:urdf_sample}{{4.3a}{13}{URDF\relax }{figure.caption.9}{}}
\newlabel{sub@fig:urdf_sample}{{a}{13}{URDF\relax }{figure.caption.9}{}}
\newlabel{fig:tree_sample}{{4.3b}{13}{Tree Structure\relax }{figure.caption.9}{}}
\newlabel{sub@fig:tree_sample}{{b}{13}{Tree Structure\relax }{figure.caption.9}{}}
\@writefile{lof}{\contentsline {figure}{\numberline {4.3}{\ignorespaces Four-Links Manipulator Sample\relax }}{13}{figure.caption.9}}
\newlabel{fig:moveit_sample}{{4.3}{13}{Four-Links Manipulator Sample\relax }{figure.caption.9}{}}
\@writefile{lof}{\contentsline {figure}{\numberline {4.4}{\ignorespaces MoveIt! Setup Assistant\relax }}{14}{figure.caption.10}}
\newlabel{fig:moveit_assistant}{{4.4}{14}{MoveIt! Setup Assistant\relax }{figure.caption.10}{}}
\@writefile{toc}{\contentsline {section}{\numberline {4.2}Kinematics Solver}{15}{section.4.2}}
\newlabel{kdl}{{4.2}{15}{Kinematics Solver}{section.4.2}{}}
\@writefile{toc}{\contentsline {section}{\numberline {4.3}Planning \& What Is Behind}{15}{section.4.3}}
\newlabel{sec:plan_behind}{{4.3}{15}{Planning \& What Is Behind}{section.4.3}{}}
\newlabel{move_plan}{{4.3}{15}{Planning \& What Is Behind}{section.4.3}{}}
\citation{Pan2012}
\newlabel{robot_joint}{{4.3}{17}{Planning \& What Is Behind}{section.4.3}{}}
\@writefile{toc}{\contentsline {section}{\numberline {4.4}System Controllers}{17}{section.4.4}}
\newlabel{sec:moveit_controller}{{4.4}{17}{System Controllers}{section.4.4}{}}
\@writefile{lof}{\contentsline {figure}{\numberline {4.5}{\ignorespaces MoveIt! Controller Implementation Process\relax }}{18}{figure.caption.11}}
\newlabel{fig:controller_impl}{{4.5}{18}{MoveIt! Controller Implementation Process\relax }{figure.caption.11}{}}
\@writefile{lot}{\contentsline {table}{\numberline {4.1}{\ignorespaces  Controller Manager Plug-in Configuration Parameters \relax }}{18}{table.caption.12}}
\newlabel{table:control_config}{{4.1}{18}{Controller Manager Plug-in Configuration Parameters \relax }{table.caption.12}{}}
\@writefile{toc}{\contentsline {section}{\numberline {4.5}Pick Functionality}{19}{section.4.5}}
\newlabel{pickfun}{{4.5}{19}{Pick Functionality}{section.4.5}{}}
\newlabel{fig:bad_all}{{\caption@xref {fig:bad_all}{ on input line 184}}{19}{Pick Functionality}{figure.caption.13}{}}
\newlabel{sub@fig:bad_all}{{}{19}{Pick Functionality}{figure.caption.13}{}}
\newlabel{fig:ee_xyz_2}{{\caption@xref {fig:ee_xyz_2}{ on input line 190}}{19}{Pick Functionality}{figure.caption.13}{}}
\newlabel{sub@fig:ee_xyz_2}{{}{19}{Pick Functionality}{figure.caption.13}{}}
\@writefile{lof}{\contentsline {figure}{\numberline {4.6}{\ignorespaces Pick-up Manipulation Pipeline \& Grasp Message Details\relax }}{19}{figure.caption.13}}
\newlabel{fig:grasp_all}{{4.6}{19}{Pick-up Manipulation Pipeline \& Grasp Message Details\relax }{figure.caption.13}{}}
\@writefile{toc}{\contentsline {section}{\numberline {4.6}Perception}{20}{section.4.6}}
\@writefile{toc}{\contentsline {chapter}{\numberline {5}MoveIt! Based Sea-Intervention Application}{21}{chapter.5}}
\@writefile{lof}{\addvspace {10\p@ }}
\@writefile{lot}{\addvspace {10\p@ }}
\newlabel{ch:valve_turn_moveit}{{5}{21}{MoveIt! Based Sea-Intervention Application}{chapter.5}{}}
\@writefile{toc}{\contentsline {section}{\numberline {5.1}Implemented Software Architecture \& Capabilities}{21}{section.5.1}}
\newlabel{sect:software}{{5.1}{21}{Implemented Software Architecture \& Capabilities}{section.5.1}{}}
\@writefile{toc}{\contentsline {subsection}{\numberline {5.1.1}I-AUV modeling in MoveIt!}{21}{subsection.5.1.1}}
\newlabel{sec:model_moveit}{{5.1.1}{21}{I-AUV modeling in MoveIt!}{subsection.5.1.1}{}}
\@writefile{lof}{\contentsline {figure}{\numberline {5.1}{\ignorespaces Implemented System Architecture \& Interface with the I-AUV\relax }}{22}{figure.caption.14}}
\newlabel{fig:arch}{{5.1}{22}{Implemented System Architecture \& Interface with the I-AUV\relax }{figure.caption.14}{}}
\@writefile{lof}{\contentsline {figure}{\numberline {5.2}{\ignorespaces I-AUV Schema \& Arm Denavit-Hartenberg Kinematic Parameters\relax }}{23}{figure.caption.15}}
\newlabel{fig:arm_model}{{5.2}{23}{I-AUV Schema \& Arm Denavit-Hartenberg Kinematic Parameters\relax }{figure.caption.15}{}}
\@writefile{lof}{\contentsline {figure}{\numberline {5.3}{\ignorespaces The 8 DOF I-AUV as Modelled in MoveIt!\relax }}{24}{figure.caption.16}}
\newlabel{fig:moveit_arm_model}{{5.3}{24}{The 8 DOF I-AUV as Modelled in MoveIt!\relax }{figure.caption.16}{}}
\@writefile{lot}{\contentsline {table}{\numberline {5.1}{\ignorespaces Mapping Denavit-Hartenberg Parameters \& URDF tags\relax }}{24}{table.caption.17}}
\newlabel{mapping}{{5.1}{24}{Mapping Denavit-Hartenberg Parameters \& URDF tags\relax }{table.caption.17}{}}
\newlabel{fig:girona50_moveit_visual_model}{{5.4a}{25}{The 3D Visual Model\relax }{figure.caption.18}{}}
\newlabel{sub@fig:girona50_moveit_visual_model}{{a}{25}{The 3D Visual Model\relax }{figure.caption.18}{}}
\newlabel{fig:girona50_moveit_collision_model}{{5.4b}{25}{The 3D Collision Model\relax }{figure.caption.18}{}}
\newlabel{sub@fig:girona50_moveit_collision_model}{{b}{25}{The 3D Collision Model\relax }{figure.caption.18}{}}
\@writefile{lof}{\contentsline {figure}{\numberline {5.4}{\ignorespaces Girona500 Model In MoveIt!\relax }}{25}{figure.caption.18}}
\newlabel{fig:girona50_moveit_model}{{5.4}{25}{Girona500 Model In MoveIt!\relax }{figure.caption.18}{}}
\@writefile{toc}{\contentsline {subsection}{\numberline {5.1.2}I-AUV Kinematics Solver}{25}{subsection.5.1.2}}
\@writefile{toc}{\contentsline {subsection}{\numberline {5.1.3}I-AUV Robot State \& Joint State Synchronization}{26}{subsection.5.1.3}}
\@writefile{lof}{\contentsline {figure}{\numberline {5.5}{\ignorespaces The Arm Joints Transformations Published In MoveIt! \& Real System \relax }}{26}{figure.caption.19}}
\newlabel{fig:uwsim_modevit_tf}{{5.5}{26}{The Arm Joints Transformations Published In MoveIt! \& Real System \relax }{figure.caption.19}{}}
\@writefile{toc}{\contentsline {subsection}{\numberline {5.1.4}I-AUV Controller}{26}{subsection.5.1.4}}
\citation{Zacharias2007}
\citation{Berenson2007}
\citation{Vahrenkamp2012}
\citation{Zacharias2009}
\@writefile{lof}{\contentsline {figure}{\numberline {5.6}{\ignorespaces MoveIt! System Controller \& Its Interface With I-AUV Controller\relax }}{27}{figure.caption.20}}
\newlabel{fig:moveit_auv_controller}{{5.6}{27}{MoveIt! System Controller \& Its Interface With I-AUV Controller\relax }{figure.caption.20}{}}
\@writefile{toc}{\contentsline {subsection}{\numberline {5.1.5}I-AUV Planning Capabilities}{27}{subsection.5.1.5}}
\@writefile{toc}{\contentsline {subsection}{\numberline {5.1.6}Workspace Analysis}{27}{subsection.5.1.6}}
\newlabel{sec:workspace}{{5.1.6}{27}{Workspace Analysis}{subsection.5.1.6}{}}
\@writefile{toc}{\contentsline {section}{\numberline {5.2} "Valve Turning" Benchmark Task}{28}{section.5.2}}
\newlabel{sec:valve_turn_task}{{5.2}{28}{"Valve Turning" Benchmark Task}{section.5.2}{}}
\@writefile{lof}{\contentsline {figure}{\numberline {5.7}{\ignorespaces Panel mounted in the water tank with its frame of reference shown\relax }}{29}{figure.caption.21}}
\newlabel{fig:panel_axis}{{5.7}{29}{Panel mounted in the water tank with its frame of reference shown\relax }{figure.caption.21}{}}
\@writefile{toc}{\contentsline {subsection}{\numberline {5.2.1}\textbf  {\emph  {Valve Turning Phases:}}}{29}{subsection.5.2.1}}
\newlabel{fig:all_det}{{5.8a}{30}{Detection\relax }{figure.caption.22}{}}
\newlabel{sub@fig:all_det}{{a}{30}{Detection\relax }{figure.caption.22}{}}
\newlabel{fig:all_insp}{{5.8b}{30}{Inspection\relax }{figure.caption.22}{}}
\newlabel{sub@fig:all_insp}{{b}{30}{Inspection\relax }{figure.caption.22}{}}
\newlabel{fig:all_choice}{{5.8c}{30}{Grasp Pose Choice\relax }{figure.caption.22}{}}
\newlabel{sub@fig:all_choice}{{c}{30}{Grasp Pose Choice\relax }{figure.caption.22}{}}
\newlabel{fig:all_approach}{{5.8d}{30}{Approaching\relax }{figure.caption.22}{}}
\newlabel{sub@fig:all_approach}{{d}{30}{Approaching\relax }{figure.caption.22}{}}
\newlabel{fig:all_grasp}{{5.8e}{30}{Grasping \& Turning\relax }{figure.caption.22}{}}
\newlabel{sub@fig:all_grasp}{{e}{30}{Grasping \& Turning\relax }{figure.caption.22}{}}
\@writefile{lof}{\contentsline {figure}{\numberline {5.8}{\ignorespaces Valve Turning Phases\relax }}{30}{figure.caption.22}}
\newlabel{fig:all_phases}{{5.8}{30}{Valve Turning Phases\relax }{figure.caption.22}{}}
\@writefile{loa}{\contentsline {algorithm}{\numberline {1}{\ignorespaces Detection Flow\relax }}{31}{algorithm.caption.23}}
\newlabel{det_flow}{{1}{31}{Detection Flow\relax }{algorithm.caption.23}{}}
\@writefile{loa}{\contentsline {algorithm}{\numberline {2}{\ignorespaces Inspection Flow\relax }}{31}{algorithm.caption.24}}
\newlabel{inspect_flow}{{2}{31}{Inspection Flow\relax }{algorithm.caption.24}{}}
\newlabel{choice_grasp}{{5.2.1}{31}{\textbf {\emph {Valve Turning Phases:}}}{algorithm.caption.24}{}}
\@writefile{loa}{\contentsline {algorithm}{\numberline {3}{\ignorespaces Plan \& Turn Flow\relax }}{32}{algorithm.caption.25}}
\newlabel{plan_flow}{{3}{32}{Plan \& Turn Flow\relax }{algorithm.caption.25}{}}
\@writefile{loa}{\contentsline {algorithm}{\numberline {4}{\ignorespaces Pick \& Turn Flow\relax }}{33}{algorithm.caption.26}}
\newlabel{pick_flow}{{4}{33}{Pick \& Turn Flow\relax }{algorithm.caption.26}{}}
\@writefile{lof}{\contentsline {figure}{\numberline {5.9}{\ignorespaces Obstacles Scene In Valve Turning Scenario\relax }}{34}{figure.caption.27}}
\newlabel{fig:obstacles_scene}{{5.9}{34}{Obstacles Scene In Valve Turning Scenario\relax }{figure.caption.27}{}}
\@writefile{loa}{\contentsline {algorithm}{\numberline {5}{\ignorespaces Obstacles Management\relax }}{35}{algorithm.caption.28}}
\newlabel{obstacle_flow}{{5}{35}{Obstacles Management\relax }{algorithm.caption.28}{}}
\newlabel{fig:workspace_all}{{5.10a}{35}{Sampled Workspace\relax }{figure.caption.29}{}}
\newlabel{sub@fig:workspace_all}{{a}{35}{Sampled Workspace\relax }{figure.caption.29}{}}
\newlabel{fig:workspace_ok}{{5.10b}{35}{Workspace Valid For Valve Turning\relax }{figure.caption.29}{}}
\newlabel{sub@fig:workspace_ok}{{b}{35}{Workspace Valid For Valve Turning\relax }{figure.caption.29}{}}
\newlabel{fig:workspace_filtered}{{5.10c}{35}{Filtered Workspace With "Detection Obstacle"\relax }{figure.caption.29}{}}
\newlabel{sub@fig:workspace_filtered}{{c}{35}{Filtered Workspace With "Detection Obstacle"\relax }{figure.caption.29}{}}
\newlabel{fig:workspace_obstacle}{{5.10d}{35}{Filtered Workspace With "Panel Obstacle"\relax }{figure.caption.29}{}}
\newlabel{sub@fig:workspace_obstacle}{{d}{35}{Filtered Workspace With "Panel Obstacle"\relax }{figure.caption.29}{}}
\@writefile{lof}{\contentsline {figure}{\numberline {5.10}{\ignorespaces Workspace Analysis Phases\relax }}{35}{figure.caption.29}}
\newlabel{fig:workspace_all_filtered}{{5.10}{35}{Workspace Analysis Phases\relax }{figure.caption.29}{}}
\@writefile{loa}{\contentsline {algorithm}{\numberline {6}{\ignorespaces Generate \& Filter Grasp Pose\relax }}{36}{algorithm.caption.30}}
\newlabel{filter_flow}{{6}{36}{Generate \& Filter Grasp Pose\relax }{algorithm.caption.30}{}}
\newlabel{fig:bad_all}{{\caption@xref {fig:bad_all}{ on input line 463}}{36}{\textbf {\emph {Valve Turning Phases:}}}{figure.caption.31}{}}
\newlabel{sub@fig:bad_all}{{}{36}{\textbf {\emph {Valve Turning Phases:}}}{figure.caption.31}{}}
\newlabel{fig:ee_xyz_2}{{\caption@xref {fig:ee_xyz_2}{ on input line 468}}{36}{\textbf {\emph {Valve Turning Phases:}}}{figure.caption.31}{}}
\newlabel{sub@fig:ee_xyz_2}{{}{36}{\textbf {\emph {Valve Turning Phases:}}}{figure.caption.31}{}}
\newlabel{fig:ee_rpy_2}{{\caption@xref {fig:ee_rpy_2}{ on input line 473}}{36}{\textbf {\emph {Valve Turning Phases:}}}{figure.caption.31}{}}
\newlabel{sub@fig:ee_rpy_2}{{}{36}{\textbf {\emph {Valve Turning Phases:}}}{figure.caption.31}{}}
\@writefile{lof}{\contentsline {figure}{\numberline {5.11}{\ignorespaces Sample of Valid Orientations With I-AUV Configuration At Each Sample\relax }}{36}{figure.caption.31}}
\newlabel{fig:workspace_good_config}{{5.11}{36}{Sample of Valid Orientations With I-AUV Configuration At Each Sample\relax }{figure.caption.31}{}}
\newlabel{fig:bad_all}{{\caption@xref {fig:bad_all}{ on input line 484}}{36}{\textbf {\emph {Valve Turning Phases:}}}{figure.caption.32}{}}
\newlabel{sub@fig:bad_all}{{}{36}{\textbf {\emph {Valve Turning Phases:}}}{figure.caption.32}{}}
\newlabel{fig:ee_xyz_2}{{\caption@xref {fig:ee_xyz_2}{ on input line 489}}{36}{\textbf {\emph {Valve Turning Phases:}}}{figure.caption.32}{}}
\newlabel{sub@fig:ee_xyz_2}{{}{36}{\textbf {\emph {Valve Turning Phases:}}}{figure.caption.32}{}}
\newlabel{fig:ee_rpy_2}{{\caption@xref {fig:ee_rpy_2}{ on input line 494}}{36}{\textbf {\emph {Valve Turning Phases:}}}{figure.caption.32}{}}
\newlabel{sub@fig:ee_rpy_2}{{}{36}{\textbf {\emph {Valve Turning Phases:}}}{figure.caption.32}{}}
\@writefile{lof}{\contentsline {figure}{\numberline {5.12}{\ignorespaces Sample of Invalid Orientations With I-AUV Configuration At Each Sample\relax }}{36}{figure.caption.32}}
\newlabel{fig:workspace_bad_all}{{5.12}{36}{Sample of Invalid Orientations With I-AUV Configuration At Each Sample\relax }{figure.caption.32}{}}
\@writefile{toc}{\contentsline {chapter}{\numberline {6}Experimental Setup \& Results}{37}{chapter.6}}
\@writefile{lof}{\addvspace {10\p@ }}
\@writefile{lot}{\addvspace {10\p@ }}
\newlabel{ch:setup}{{6}{37}{Experimental Setup \& Results}{chapter.6}{}}
\@writefile{toc}{\contentsline {section}{\numberline {6.1}Experiments Methodology}{37}{section.6.1}}
\newlabel{sec:methodology}{{6.1}{37}{Experiments Methodology}{section.6.1}{}}
\@writefile{toc}{\contentsline {subsection}{\numberline {6.1.1}MoveIt! \& Rviz Simulation}{37}{subsection.6.1.1}}
\@writefile{toc}{\contentsline {subsection}{\numberline {6.1.2}UWSim Environment}{37}{subsection.6.1.2}}
\@writefile{lof}{\contentsline {figure}{\numberline {6.1}{\ignorespaces The valve turning environment modelled in UWSim\relax }}{38}{figure.caption.33}}
\newlabel{fig:uwsim}{{6.1}{38}{The valve turning environment modelled in UWSim\relax }{figure.caption.33}{}}
\@writefile{toc}{\contentsline {subsection}{\numberline {6.1.3}The Real System In The Water Tank}{38}{subsection.6.1.3}}
\@writefile{lof}{\contentsline {figure}{\numberline {6.2}{\ignorespaces CIRS Water Tank\relax }}{38}{figure.caption.34}}
\newlabel{fig:watertank}{{6.2}{38}{CIRS Water Tank\relax }{figure.caption.34}{}}
\@writefile{toc}{\contentsline {section}{\numberline {6.2}Results \& Analysis}{39}{section.6.2}}
\newlabel{sec:results}{{6.2}{39}{Results \& Analysis}{section.6.2}{}}
\@writefile{toc}{\contentsline {subsection}{\numberline {6.2.1}MoveIt! \& Rviz Simulation Results}{39}{subsection.6.2.1}}
\newlabel{fig:moveit_result_start}{{6.3a}{40}{Start \& End Poses\relax }{figure.caption.35}{}}
\newlabel{sub@fig:moveit_result_start}{{a}{40}{Start \& End Poses\relax }{figure.caption.35}{}}
\newlabel{fig:moveit_result_plan}{{6.3b}{40}{The Output Plan\relax }{figure.caption.35}{}}
\newlabel{sub@fig:moveit_result_plan}{{b}{40}{The Output Plan\relax }{figure.caption.35}{}}
\newlabel{fig:moveit_result_motion_planning}{{6.3c}{40}{Motion Planning Plug-in In MoveIt!\relax }{figure.caption.35}{}}
\newlabel{sub@fig:moveit_result_motion_planning}{{c}{40}{Motion Planning Plug-in In MoveIt!\relax }{figure.caption.35}{}}
\@writefile{lof}{\contentsline {figure}{\numberline {6.3}{\ignorespaces Initial Planning Tests in MoveIt! \& Rviz\relax }}{40}{figure.caption.35}}
\newlabel{fig:moveit_initial_result}{{6.3}{40}{Initial Planning Tests in MoveIt! \& Rviz\relax }{figure.caption.35}{}}
\@writefile{toc}{\contentsline {subsection}{\numberline {6.2.2}Water Tank Experiment Results}{40}{subsection.6.2.2}}
\newlabel{exp_result_sec}{{6.2.2}{40}{Water Tank Experiment Results}{subsection.6.2.2}{}}
\@writefile{lot}{\contentsline {table}{\numberline {6.1}{\ignorespaces CheckList Of The Tests Done In The Water Tank\relax }}{41}{table.caption.36}}
\newlabel{testing_checklist}{{6.1}{41}{CheckList Of The Tests Done In The Water Tank\relax }{table.caption.36}{}}
\newlabel{fig:scenario1_3d}{{6.4a}{43}{End-Effector \& AUV positions in NED-Frame\relax }{figure.caption.37}{}}
\newlabel{sub@fig:scenario1_3d}{{a}{43}{End-Effector \& AUV positions in NED-Frame\relax }{figure.caption.37}{}}
\newlabel{fig:scenario1_rviz}{{6.4b}{43}{End-Effector (purple) \& AUV (yellow) positions in Rviz\relax }{figure.caption.37}{}}
\newlabel{sub@fig:scenario1_rviz}{{b}{43}{End-Effector (purple) \& AUV (yellow) positions in Rviz\relax }{figure.caption.37}{}}
\@writefile{lof}{\contentsline {figure}{\numberline {6.4}{\ignorespaces The valve turning scenario(1)\relax }}{43}{figure.caption.37}}
\newlabel{fig:scenario1}{{6.4}{43}{The valve turning scenario(1)\relax }{figure.caption.37}{}}
\newlabel{fig:scenario1_s}{{6.5a}{44}{"Start"\relax }{figure.caption.38}{}}
\newlabel{sub@fig:scenario1_s}{{a}{44}{"Start"\relax }{figure.caption.38}{}}
\newlabel{fig:scenario1_d}{{6.5b}{44}{"Detection"\relax }{figure.caption.38}{}}
\newlabel{sub@fig:scenario1_d}{{b}{44}{"Detection"\relax }{figure.caption.38}{}}
\newlabel{fig:scenario1_i}{{6.5c}{44}{"Inspection"\relax }{figure.caption.38}{}}
\newlabel{sub@fig:scenario1_i}{{c}{44}{"Inspection"\relax }{figure.caption.38}{}}
\newlabel{fig:scenario1_i}{{6.5d}{44}{"Approach"\relax }{figure.caption.38}{}}
\newlabel{sub@fig:scenario1_i}{{d}{44}{"Approach"\relax }{figure.caption.38}{}}
\newlabel{fig:scenario1_g}{{6.5e}{44}{"Grasp \& Turn" \relax }{figure.caption.38}{}}
\newlabel{sub@fig:scenario1_g}{{e}{44}{"Grasp \& Turn" \relax }{figure.caption.38}{}}
\@writefile{lof}{\contentsline {figure}{\numberline {6.5}{\ignorespaces The valve turning scenario(1): Configuration Evolution During The Trajectory\relax }}{44}{figure.caption.38}}
\newlabel{fig:scenario1_phases}{{6.5}{44}{The valve turning scenario(1): Configuration Evolution During The Trajectory\relax }{figure.caption.38}{}}
\newlabel{fig:scenario1_x}{{6.6a}{44}{AUV - X Position Planned vs. Actual\relax }{figure.caption.39}{}}
\newlabel{sub@fig:scenario1_x}{{a}{44}{AUV - X Position Planned vs. Actual\relax }{figure.caption.39}{}}
\newlabel{fig:scenario1_y}{{6.6b}{44}{AUV - Y Position Planned vs. Actual\relax }{figure.caption.39}{}}
\newlabel{sub@fig:scenario1_y}{{b}{44}{AUV - Y Position Planned vs. Actual\relax }{figure.caption.39}{}}
\newlabel{fig:scenario1_z}{{6.6c}{44}{AUV - Z Position Planned vs. Actual\relax }{figure.caption.39}{}}
\newlabel{sub@fig:scenario1_z}{{c}{44}{AUV - Z Position Planned vs. Actual\relax }{figure.caption.39}{}}
\newlabel{fig:scenario1_yaw}{{6.6d}{44}{AUV - Yaw Planned vs. Actual\relax }{figure.caption.39}{}}
\newlabel{sub@fig:scenario1_yaw}{{d}{44}{AUV - Yaw Planned vs. Actual\relax }{figure.caption.39}{}}
\@writefile{lof}{\contentsline {figure}{\numberline {6.6}{\ignorespaces Scenario(1): AUV Pose Evolution\relax }}{44}{figure.caption.39}}
\newlabel{fig:scenario1_auv}{{6.6}{44}{Scenario(1): AUV Pose Evolution\relax }{figure.caption.39}{}}
\newlabel{fig:scenario1_sh}{{6.7a}{45}{Arm - Shoulder Joint Planned vs. Actual\relax }{figure.caption.40}{}}
\newlabel{sub@fig:scenario1_sh}{{a}{45}{Arm - Shoulder Joint Planned vs. Actual\relax }{figure.caption.40}{}}
\newlabel{fig:scenario1_bi}{{6.7b}{45}{Arm - Biceps Joint Planned vs. Actual\relax }{figure.caption.40}{}}
\newlabel{sub@fig:scenario1_bi}{{b}{45}{Arm - Biceps Joint Planned vs. Actual\relax }{figure.caption.40}{}}
\newlabel{fig:scenario1_el}{{6.7c}{45}{Arm - Elbow Joint Planned vs. Actual\relax }{figure.caption.40}{}}
\newlabel{sub@fig:scenario1_el}{{c}{45}{Arm - Elbow Joint Planned vs. Actual\relax }{figure.caption.40}{}}
\newlabel{fig:scenario1_w}{{6.7d}{45}{Arm - Wrist Joint Planned vs. Actual\relax }{figure.caption.40}{}}
\newlabel{sub@fig:scenario1_w}{{d}{45}{Arm - Wrist Joint Planned vs. Actual\relax }{figure.caption.40}{}}
\@writefile{lof}{\contentsline {figure}{\numberline {6.7}{\ignorespaces Scenario(1): Arm Joints Evolution\relax }}{45}{figure.caption.40}}
\newlabel{fig:scenario1_arm}{{6.7}{45}{Scenario(1): Arm Joints Evolution\relax }{figure.caption.40}{}}
\newlabel{fig:ee_xyz_1}{{6.8a}{45}{End-Effector Position\relax }{figure.caption.41}{}}
\newlabel{sub@fig:ee_xyz_1}{{a}{45}{End-Effector Position\relax }{figure.caption.41}{}}
\newlabel{fig:ee_rpy_1}{{6.8b}{45}{End-Effector Orientation\relax }{figure.caption.41}{}}
\newlabel{sub@fig:ee_rpy_1}{{b}{45}{End-Effector Orientation\relax }{figure.caption.41}{}}
\@writefile{lof}{\contentsline {figure}{\numberline {6.8}{\ignorespaces Scenario(1): Actual EE-XYZ \& EE-RPY marked in Red, Green, Blue   With Corresponding Set points marked in Magenta, Yellow, Cyan\relax }}{45}{figure.caption.41}}
\newlabel{fig:scenario1_others}{{6.8}{45}{Scenario(1): Actual EE-XYZ \& EE-RPY marked in Red, Green, Blue \\ With Corresponding Set points marked in Magenta, Yellow, Cyan\relax }{figure.caption.41}{}}
\newlabel{fig:scenario2_3d}{{6.9a}{46}{End-Effector \& AUV positions in NED-Frame\relax }{figure.caption.42}{}}
\newlabel{sub@fig:scenario2_3d}{{a}{46}{End-Effector \& AUV positions in NED-Frame\relax }{figure.caption.42}{}}
\newlabel{fig:scenario2_rviz}{{6.9b}{46}{End-Effector (purple) \& AUV (yellow) positions in Rviz\relax }{figure.caption.42}{}}
\newlabel{sub@fig:scenario2_rviz}{{b}{46}{End-Effector (purple) \& AUV (yellow) positions in Rviz\relax }{figure.caption.42}{}}
\@writefile{lof}{\contentsline {figure}{\numberline {6.9}{\ignorespaces The valve turning scenario(2)\relax }}{46}{figure.caption.42}}
\newlabel{fig:scenario2}{{6.9}{46}{The valve turning scenario(2)\relax }{figure.caption.42}{}}
\newlabel{fig:scenario2_s}{{6.10a}{47}{"Start"\relax }{figure.caption.43}{}}
\newlabel{sub@fig:scenario2_s}{{a}{47}{"Start"\relax }{figure.caption.43}{}}
\newlabel{fig:scenario2_d}{{6.10b}{47}{"Detection"\relax }{figure.caption.43}{}}
\newlabel{sub@fig:scenario2_d}{{b}{47}{"Detection"\relax }{figure.caption.43}{}}
\newlabel{fig:scenario2_i}{{6.10c}{47}{"Inspection"\relax }{figure.caption.43}{}}
\newlabel{sub@fig:scenario2_i}{{c}{47}{"Inspection"\relax }{figure.caption.43}{}}
\newlabel{fig:scenario2_g}{{6.10d}{47}{"Grasp \& Turn"\relax }{figure.caption.43}{}}
\newlabel{sub@fig:scenario2_g}{{d}{47}{"Grasp \& Turn"\relax }{figure.caption.43}{}}
\@writefile{lof}{\contentsline {figure}{\numberline {6.10}{\ignorespaces The valve turning scenario(2): Configuration Evolution During The Trajectory\relax }}{47}{figure.caption.43}}
\newlabel{fig:scenario2_phases}{{6.10}{47}{The valve turning scenario(2): Configuration Evolution During The Trajectory\relax }{figure.caption.43}{}}
\newlabel{fig:scenario2_x}{{6.11a}{47}{AUV - X Position Planned vs. Actual\relax }{figure.caption.44}{}}
\newlabel{sub@fig:scenario2_x}{{a}{47}{AUV - X Position Planned vs. Actual\relax }{figure.caption.44}{}}
\newlabel{fig:scenario2_y}{{6.11b}{47}{AUV - Y Position Planned vs. Actual\relax }{figure.caption.44}{}}
\newlabel{sub@fig:scenario2_y}{{b}{47}{AUV - Y Position Planned vs. Actual\relax }{figure.caption.44}{}}
\newlabel{fig:scenario2_z}{{6.11c}{47}{AUV - Z Position Planned vs. Actual\relax }{figure.caption.44}{}}
\newlabel{sub@fig:scenario2_z}{{c}{47}{AUV - Z Position Planned vs. Actual\relax }{figure.caption.44}{}}
\newlabel{fig:scenario2_yaw}{{6.11d}{47}{AUV - Yaw Planned vs. Actual\relax }{figure.caption.44}{}}
\newlabel{sub@fig:scenario2_yaw}{{d}{47}{AUV - Yaw Planned vs. Actual\relax }{figure.caption.44}{}}
\@writefile{lof}{\contentsline {figure}{\numberline {6.11}{\ignorespaces Scenario(2): AUV Pose Evolution\relax }}{47}{figure.caption.44}}
\newlabel{fig:scenario2_auv}{{6.11}{47}{Scenario(2): AUV Pose Evolution\relax }{figure.caption.44}{}}
\newlabel{fig:scenario2_sh}{{6.12a}{48}{Arm - Shoulder Joint Planned vs. Actual\relax }{figure.caption.45}{}}
\newlabel{sub@fig:scenario2_sh}{{a}{48}{Arm - Shoulder Joint Planned vs. Actual\relax }{figure.caption.45}{}}
\newlabel{fig:scenario2_bi}{{6.12b}{48}{Arm - Biceps Joint Planned vs. Actual\relax }{figure.caption.45}{}}
\newlabel{sub@fig:scenario2_bi}{{b}{48}{Arm - Biceps Joint Planned vs. Actual\relax }{figure.caption.45}{}}
\newlabel{fig:scenario2_el}{{6.12c}{48}{Arm - Elbow Joint Planned vs. Actual\relax }{figure.caption.45}{}}
\newlabel{sub@fig:scenario2_el}{{c}{48}{Arm - Elbow Joint Planned vs. Actual\relax }{figure.caption.45}{}}
\newlabel{fig:scenario2_w}{{6.12d}{48}{Arm - Wrist Joint Planned vs. Actual\relax }{figure.caption.45}{}}
\newlabel{sub@fig:scenario2_w}{{d}{48}{Arm - Wrist Joint Planned vs. Actual\relax }{figure.caption.45}{}}
\@writefile{lof}{\contentsline {figure}{\numberline {6.12}{\ignorespaces Scenario(2): Arm Joints Evolution\relax }}{48}{figure.caption.45}}
\newlabel{fig:scenario2_arm}{{6.12}{48}{Scenario(2): Arm Joints Evolution\relax }{figure.caption.45}{}}
\newlabel{fig:ee_xyz_2}{{6.13a}{48}{End-Effector Position\relax }{figure.caption.46}{}}
\newlabel{sub@fig:ee_xyz_2}{{a}{48}{End-Effector Position\relax }{figure.caption.46}{}}
\newlabel{fig:ee_rpy_2}{{6.13b}{48}{End-Effector Orientation\relax }{figure.caption.46}{}}
\newlabel{sub@fig:ee_rpy_2}{{b}{48}{End-Effector Orientation\relax }{figure.caption.46}{}}
\@writefile{lof}{\contentsline {figure}{\numberline {6.13}{\ignorespaces Scenario(2): Actual EE-XYZ \& EE-RPY marked in Red, Green, Blue   With Corresponding Set points marked in Magenta, Yellow, Cyan\relax }}{48}{figure.caption.46}}
\newlabel{fig:scenario2_others}{{6.13}{48}{Scenario(2): Actual EE-XYZ \& EE-RPY marked in Red, Green, Blue \\ With Corresponding Set points marked in Magenta, Yellow, Cyan\relax }{figure.caption.46}{}}
\newlabel{fig:scenario3_3d}{{6.14a}{49}{End-Effector \& AUV positions in NED-Frame\relax }{figure.caption.47}{}}
\newlabel{sub@fig:scenario3_3d}{{a}{49}{End-Effector \& AUV positions in NED-Frame\relax }{figure.caption.47}{}}
\newlabel{fig:scenario3_rviz}{{6.14b}{49}{End-Effector (purple) \& AUV (yellow) positions in Rviz\relax }{figure.caption.47}{}}
\newlabel{sub@fig:scenario3_rviz}{{b}{49}{End-Effector (purple) \& AUV (yellow) positions in Rviz\relax }{figure.caption.47}{}}
\@writefile{lof}{\contentsline {figure}{\numberline {6.14}{\ignorespaces The valve turning scenario(3)\relax }}{49}{figure.caption.47}}
\newlabel{fig:scenario3}{{6.14}{49}{The valve turning scenario(3)\relax }{figure.caption.47}{}}
\newlabel{fig:scenario3_s}{{6.15a}{50}{"Start"\relax }{figure.caption.48}{}}
\newlabel{sub@fig:scenario3_s}{{a}{50}{"Start"\relax }{figure.caption.48}{}}
\newlabel{fig:scenario3_d}{{6.15b}{50}{"Detection"\relax }{figure.caption.48}{}}
\newlabel{sub@fig:scenario3_d}{{b}{50}{"Detection"\relax }{figure.caption.48}{}}
\newlabel{fig:scenario3_i}{{6.15c}{50}{"Inspection"\relax }{figure.caption.48}{}}
\newlabel{sub@fig:scenario3_i}{{c}{50}{"Inspection"\relax }{figure.caption.48}{}}
\newlabel{fig:scenario3_i}{{6.15d}{50}{"Approach"\relax }{figure.caption.48}{}}
\newlabel{sub@fig:scenario3_i}{{d}{50}{"Approach"\relax }{figure.caption.48}{}}
\newlabel{fig:scenario3_g}{{6.15e}{50}{"Grasp \& Turn" \relax }{figure.caption.48}{}}
\newlabel{sub@fig:scenario3_g}{{e}{50}{"Grasp \& Turn" \relax }{figure.caption.48}{}}
\@writefile{lof}{\contentsline {figure}{\numberline {6.15}{\ignorespaces The valve turning scenario(3): Configuration Evolution During The Trajectory\relax }}{50}{figure.caption.48}}
\newlabel{fig:scenario3_phases}{{6.15}{50}{The valve turning scenario(3): Configuration Evolution During The Trajectory\relax }{figure.caption.48}{}}
\newlabel{fig:scenario3_x}{{6.16a}{50}{AUV - X Position Planned vs. Actual\relax }{figure.caption.49}{}}
\newlabel{sub@fig:scenario3_x}{{a}{50}{AUV - X Position Planned vs. Actual\relax }{figure.caption.49}{}}
\newlabel{fig:scenario3_y}{{6.16b}{50}{AUV - Y Position Planned vs. Actual\relax }{figure.caption.49}{}}
\newlabel{sub@fig:scenario3_y}{{b}{50}{AUV - Y Position Planned vs. Actual\relax }{figure.caption.49}{}}
\newlabel{fig:scenario3_z}{{6.16c}{50}{AUV - Z Position Planned vs. Actual\relax }{figure.caption.49}{}}
\newlabel{sub@fig:scenario3_z}{{c}{50}{AUV - Z Position Planned vs. Actual\relax }{figure.caption.49}{}}
\newlabel{fig:scenario3_yaw}{{6.16d}{50}{AUV - Yaw Planned vs. Actual\relax }{figure.caption.49}{}}
\newlabel{sub@fig:scenario3_yaw}{{d}{50}{AUV - Yaw Planned vs. Actual\relax }{figure.caption.49}{}}
\@writefile{lof}{\contentsline {figure}{\numberline {6.16}{\ignorespaces Scenario(3): AUV Pose Evolution\relax }}{50}{figure.caption.49}}
\newlabel{fig:scenario3_auv}{{6.16}{50}{Scenario(3): AUV Pose Evolution\relax }{figure.caption.49}{}}
\newlabel{fig:scenario3_sh}{{6.17a}{51}{Arm - Shoulder Joint Planned vs. Actual\relax }{figure.caption.50}{}}
\newlabel{sub@fig:scenario3_sh}{{a}{51}{Arm - Shoulder Joint Planned vs. Actual\relax }{figure.caption.50}{}}
\newlabel{fig:scenario3_bi}{{6.17b}{51}{Arm - Biceps Joint Planned vs. Actual\relax }{figure.caption.50}{}}
\newlabel{sub@fig:scenario3_bi}{{b}{51}{Arm - Biceps Joint Planned vs. Actual\relax }{figure.caption.50}{}}
\newlabel{fig:scenario3_el}{{6.17c}{51}{Arm - Elbow Joint Planned vs. Actual\relax }{figure.caption.50}{}}
\newlabel{sub@fig:scenario3_el}{{c}{51}{Arm - Elbow Joint Planned vs. Actual\relax }{figure.caption.50}{}}
\newlabel{fig:scenario3_w}{{6.17d}{51}{Arm - Wrist Joint Planned vs. Actual\relax }{figure.caption.50}{}}
\newlabel{sub@fig:scenario3_w}{{d}{51}{Arm - Wrist Joint Planned vs. Actual\relax }{figure.caption.50}{}}
\@writefile{lof}{\contentsline {figure}{\numberline {6.17}{\ignorespaces Scenario(3): Arm Joints Evolution\relax }}{51}{figure.caption.50}}
\newlabel{fig:scenario3_arm}{{6.17}{51}{Scenario(3): Arm Joints Evolution\relax }{figure.caption.50}{}}
\newlabel{fig:ee_xyz_3}{{6.18a}{51}{End-Effector Position\relax }{figure.caption.51}{}}
\newlabel{sub@fig:ee_xyz_3}{{a}{51}{End-Effector Position\relax }{figure.caption.51}{}}
\newlabel{fig:ee_rpy_3}{{6.18b}{51}{End-Effector Orientation\relax }{figure.caption.51}{}}
\newlabel{sub@fig:ee_rpy_3}{{b}{51}{End-Effector Orientation\relax }{figure.caption.51}{}}
\@writefile{lof}{\contentsline {figure}{\numberline {6.18}{\ignorespaces Scenario(3): Actual EE-XYZ \& EE-RPY marked in Red, Green, Blue   With Corresponding Set points marked in Magenta, Yellow, Cyan\relax }}{51}{figure.caption.51}}
\newlabel{fig:scenario3_others}{{6.18}{51}{Scenario(3): Actual EE-XYZ \& EE-RPY marked in Red, Green, Blue \\ With Corresponding Set points marked in Magenta, Yellow, Cyan\relax }{figure.caption.51}{}}
\newlabel{fig:scenario4_3d}{{6.19a}{53}{End-Effector \& AUV positions in NED-Frame\relax }{figure.caption.52}{}}
\newlabel{sub@fig:scenario4_3d}{{a}{53}{End-Effector \& AUV positions in NED-Frame\relax }{figure.caption.52}{}}
\newlabel{fig:scenario4_rviz}{{6.19b}{53}{End-Effector (purple) \& AUV (yellow) positions in Rviz\relax }{figure.caption.52}{}}
\newlabel{sub@fig:scenario4_rviz}{{b}{53}{End-Effector (purple) \& AUV (yellow) positions in Rviz\relax }{figure.caption.52}{}}
\@writefile{lof}{\contentsline {figure}{\numberline {6.19}{\ignorespaces The valve turning scenario(4)\relax }}{53}{figure.caption.52}}
\newlabel{fig:scenario2}{{6.19}{53}{The valve turning scenario(4)\relax }{figure.caption.52}{}}
\@writefile{lof}{\contentsline {figure}{\numberline {6.20}{\ignorespaces Grasp Orientation Selected By The Workspace Analysis\relax }}{53}{figure.caption.53}}
\newlabel{fig:workspace_chosen}{{6.20}{53}{Grasp Orientation Selected By The Workspace Analysis\relax }{figure.caption.53}{}}
\newlabel{fig:scenario4_s}{{6.21a}{54}{"Start"\relax }{figure.caption.54}{}}
\newlabel{sub@fig:scenario4_s}{{a}{54}{"Start"\relax }{figure.caption.54}{}}
\newlabel{fig:scenario4_d}{{6.21b}{54}{"Detection"\relax }{figure.caption.54}{}}
\newlabel{sub@fig:scenario4_d}{{b}{54}{"Detection"\relax }{figure.caption.54}{}}
\newlabel{fig:scenario4_i}{{6.21c}{54}{"Inspection"\relax }{figure.caption.54}{}}
\newlabel{sub@fig:scenario4_i}{{c}{54}{"Inspection"\relax }{figure.caption.54}{}}
\newlabel{fig:scenario4_g}{{6.21d}{54}{"Grasp \& Turn"\relax }{figure.caption.54}{}}
\newlabel{sub@fig:scenario4_g}{{d}{54}{"Grasp \& Turn"\relax }{figure.caption.54}{}}
\@writefile{lof}{\contentsline {figure}{\numberline {6.21}{\ignorespaces The valve turning scenario(4): Configuration Evolution During The Trajectory\relax }}{54}{figure.caption.54}}
\newlabel{fig:scenario4_phases}{{6.21}{54}{The valve turning scenario(4): Configuration Evolution During The Trajectory\relax }{figure.caption.54}{}}
\newlabel{fig:scenario4_x}{{6.22a}{54}{AUV - X Position Planned vs. Actual\relax }{figure.caption.55}{}}
\newlabel{sub@fig:scenario4_x}{{a}{54}{AUV - X Position Planned vs. Actual\relax }{figure.caption.55}{}}
\newlabel{fig:scenario4_y}{{6.22b}{54}{AUV - Y Position Planned vs. Actual\relax }{figure.caption.55}{}}
\newlabel{sub@fig:scenario4_y}{{b}{54}{AUV - Y Position Planned vs. Actual\relax }{figure.caption.55}{}}
\newlabel{fig:scenario4_z}{{6.22c}{54}{AUV - Z Position Planned vs. Actual\relax }{figure.caption.55}{}}
\newlabel{sub@fig:scenario4_z}{{c}{54}{AUV - Z Position Planned vs. Actual\relax }{figure.caption.55}{}}
\newlabel{fig:scenario4_yaw}{{6.22d}{54}{AUV - Yaw Planned vs. Actual\relax }{figure.caption.55}{}}
\newlabel{sub@fig:scenario4_yaw}{{d}{54}{AUV - Yaw Planned vs. Actual\relax }{figure.caption.55}{}}
\@writefile{lof}{\contentsline {figure}{\numberline {6.22}{\ignorespaces Scenario(4): AUV Pose Evolution\relax }}{54}{figure.caption.55}}
\newlabel{fig:scenario4_auv}{{6.22}{54}{Scenario(4): AUV Pose Evolution\relax }{figure.caption.55}{}}
\newlabel{fig:scenario4_sh}{{6.23a}{55}{Arm - Shoulder Joint Planned vs. Actual\relax }{figure.caption.56}{}}
\newlabel{sub@fig:scenario4_sh}{{a}{55}{Arm - Shoulder Joint Planned vs. Actual\relax }{figure.caption.56}{}}
\newlabel{fig:scenario4_bi}{{6.23b}{55}{Arm - Biceps Joint Planned vs. Actual\relax }{figure.caption.56}{}}
\newlabel{sub@fig:scenario4_bi}{{b}{55}{Arm - Biceps Joint Planned vs. Actual\relax }{figure.caption.56}{}}
\newlabel{fig:scenario4_el}{{6.23c}{55}{Arm - Elbow Joint Planned vs. Actual\relax }{figure.caption.56}{}}
\newlabel{sub@fig:scenario4_el}{{c}{55}{Arm - Elbow Joint Planned vs. Actual\relax }{figure.caption.56}{}}
\newlabel{fig:scenario4_w}{{6.23d}{55}{Arm - Wrist Joint Planned vs. Actual\relax }{figure.caption.56}{}}
\newlabel{sub@fig:scenario4_w}{{d}{55}{Arm - Wrist Joint Planned vs. Actual\relax }{figure.caption.56}{}}
\@writefile{lof}{\contentsline {figure}{\numberline {6.23}{\ignorespaces Scenario(4): Arm Joints Evolution\relax }}{55}{figure.caption.56}}
\newlabel{fig:scenario4_arm}{{6.23}{55}{Scenario(4): Arm Joints Evolution\relax }{figure.caption.56}{}}
\newlabel{fig:ee_xyz_3}{{6.24a}{55}{End-Effector Position\relax }{figure.caption.57}{}}
\newlabel{sub@fig:ee_xyz_3}{{a}{55}{End-Effector Position\relax }{figure.caption.57}{}}
\newlabel{fig:ee_rpy_3}{{6.24b}{55}{End-Effector Orientation\relax }{figure.caption.57}{}}
\newlabel{sub@fig:ee_rpy_3}{{b}{55}{End-Effector Orientation\relax }{figure.caption.57}{}}
\@writefile{lof}{\contentsline {figure}{\numberline {6.24}{\ignorespaces Scenario(4): Actual EE-XYZ \& EE-RPY marked in Red, Green, Blue   With Corresponding Set points marked in Magenta, Yellow, Cyan\relax }}{55}{figure.caption.57}}
\newlabel{fig:scenario3_others}{{6.24}{55}{Scenario(4): Actual EE-XYZ \& EE-RPY marked in Red, Green, Blue \\ With Corresponding Set points marked in Magenta, Yellow, Cyan\relax }{figure.caption.57}{}}
\@writefile{lof}{\contentsline {figure}{\numberline {6.25}{\ignorespaces Moveit! Output Plan For The AUV-Z Position\relax }}{56}{figure.caption.58}}
\newlabel{fig:plannedZ}{{6.25}{56}{Moveit! Output Plan For The AUV-Z Position\relax }{figure.caption.58}{}}
\@writefile{toc}{\contentsline {chapter}{\numberline {7}Conclusions \& Future Work}{57}{chapter.7}}
\@writefile{lof}{\addvspace {10\p@ }}
\@writefile{lot}{\addvspace {10\p@ }}
\newlabel{cha:conclusion_future}{{7}{57}{Conclusions \& Future Work}{chapter.7}{}}
\@writefile{toc}{\contentsline {section}{\numberline {7.1}Conclusions}{57}{section.7.1}}
\newlabel{sec:conclusion}{{7.1}{57}{Conclusions}{section.7.1}{}}
\@writefile{toc}{\contentsline {section}{\numberline {7.2}Future Work}{57}{section.7.2}}
\newlabel{sec:future}{{7.2}{57}{Future Work}{section.7.2}{}}
\citation{Guillem2013}
\citation{Francesco2015}
\@writefile{toc}{\contentsline {chapter}{\numberline {A}Valve Turning Flow-Chart}{59}{appendix.A}}
\@writefile{lof}{\addvspace {10\p@ }}
\@writefile{lot}{\addvspace {10\p@ }}
\newlabel{ch:flow_chart}{{A}{59}{Valve Turning Flow-Chart}{appendix.A}{}}
\@writefile{lof}{\contentsline {figure}{\numberline {A.1}{\ignorespaces Valve Turning Scenario Main Flow\relax }}{59}{figure.caption.59}}
\newlabel{fig:valveturning_flowchart}{{A.1}{59}{Valve Turning Scenario Main Flow\relax }{figure.caption.59}{}}
\@writefile{toc}{\contentsline {chapter}{\numberline {B}Manipulator Modelling In MoveIt!}{60}{appendix.B}}
\@writefile{lof}{\addvspace {10\p@ }}
\@writefile{lot}{\addvspace {10\p@ }}
\newlabel{ch:urdf_extra}{{B}{60}{Manipulator Modelling In MoveIt!}{appendix.B}{}}
\@writefile{lot}{\contentsline {table}{\numberline {B.1}{\ignorespaces URDF Tags Listing \& Explanation\relax }}{60}{table.caption.60}}
\newlabel{urdf_table}{{B.1}{60}{URDF Tags Listing \& Explanation\relax }{table.caption.60}{}}
\newlabel{code:sample}{{B.1}{61}{\emph {Girona 500} I-AUV Full URDF}{lstlisting.B.1}{}}
\@writefile{lol}{\contentsline {lstlisting}{\numberline {B.1}\emph  {Girona 500} I-AUV Full URDF}{61}{lstlisting.B.1}}
\newlabel{code:sample}{{B.2}{65}{\emph {Girona 500} I-AUV Full SRDF}{lstlisting.B.2}{}}
\@writefile{lol}{\contentsline {lstlisting}{\numberline {B.2}\emph  {Girona 500} I-AUV Full SRDF}{65}{lstlisting.B.2}}
\bibstyle{plain}
\citation{*}
\bibdata{Thesis-Useful}
\@writefile{toc}{\contentsline {chapter}{\numberline {C}Complementary Results}{68}{appendix.C}}
\@writefile{lof}{\addvspace {10\p@ }}
\@writefile{lot}{\addvspace {10\p@ }}
\newlabel{ch:result_extra}{{C}{68}{Complementary Results}{appendix.C}{}}
\@writefile{lof}{\contentsline {figure}{\numberline {C.1}{\ignorespaces MoveIt! Generated Path With \& Without Obstacles\relax }}{68}{figure.caption.61}}
\newlabel{fig:obstacle_path}{{C.1}{68}{MoveIt! Generated Path With \& Without Obstacles\relax }{figure.caption.61}{}}
\bibcite{ITHRUI}{1}
\bibcite{Aleotti2012}{2}
\bibcite{Ali2006}{3}
\bibcite{Berenson2007}{4}
\bibcite{Bohren2011}{5}
\bibcite{Borst2004}{6}
\bibcite{Brandou2007}{7}
\bibcite{Carrera2011}{8}
\bibcite{Casalino2014}{9}
\bibcite{Coleman2014}{10}
\bibcite{Detweiler2009}{11}
\bibcite{Gastaldo2014}{12}
\bibcite{Hentout2006}{13}
\bibcite{Houts2012}{14}
\bibcite{Houts2014}{15}
\bibcite{Jose2013}{16}
\bibcite{Khatib2014}{17}
\bibcite{Narcis2014}{18}
\bibcite{Palomeres2014}{19}
\bibcite{Pan2012}{20}
\bibcite{Prats2011}{21}
\bibcite{David2011}{22}
\bibcite{Sanz2010}{23}
\bibcite{Sauser2012}{24}
\bibcite{Francesco2015}{25}
\bibcite{Vahrenkamp2013a}{26}
\bibcite{Vahrenkamp2012}{27}
\bibcite{Guillem2013}{28}
\bibcite{Zacharias2007}{29}
\bibcite{Zacharias2009}{30}
\@writefile{toc}{\contentsline {chapter}{\numberline {Bibliography\hspace  {-96pt}}}{71}{appendix*.62}}
